<?xml version="1.0" encoding="utf-8" standalone="no"?>
<!DOCTYPE svg PUBLIC "-//W3C//DTD SVG 1.1//EN"
  "http://www.w3.org/Graphics/SVG/1.1/DTD/svg11.dtd">
<!-- Created with matplotlib (http://matplotlib.org/) -->
<svg height="432pt" version="1.1" viewBox="0 0 576 432" width="576pt" xmlns="http://www.w3.org/2000/svg" xmlns:xlink="http://www.w3.org/1999/xlink">
 <defs>
  <style type="text/css">
*{stroke-linecap:butt;stroke-linejoin:round;stroke-miterlimit:100000;}
  </style>
 </defs>
 <g id="figure_1">
  <g id="patch_1">
   <path d="M 0 432 
L 576 432 
L 576 0 
L 0 0 
z
" style="fill:#ffffff;"/>
  </g>
  <g id="axes_1">
   <g id="patch_2">
    <path d="M 72 388.8 
L 451.44 388.8 
L 451.44 43.2 
L 72 43.2 
z
" style="fill:#ffffff;"/>
   </g>
   <g id="line2d_1">
    <path clip-path="url(#pdda41e69ab)" d="M -1 59.416175 
L 72 59.64531 
L 100.556015 94.303174 
L 117.260214 100.836636 
L 129.112031 103.754943 
L 138.305015 105.154077 
L 152.166871 108.088533 
L 157.668046 109.728076 
L 162.520427 111.022989 
L 166.86103 111.428959 
L 170.787583 112.46003 
L 174.372245 113.090085 
L 177.669814 114.268364 
L 180.722886 115.144888 
L 183.565228 116.151607 
L 186.224062 117.529539 
L 188.721652 118.471921 
L 191.076443 119.555984 
L 193.303884 120.917041 
L 197.427084 122.320101 
L 199.343598 122.841233 
L 201.174905 123.501162 
L 202.92826 123.767839 
L 204.610029 124.441455 
L 206.225829 124.713721 
L 207.780641 125.6797 
L 209.278901 125.959506 
L 212.121244 127.384961 
L 213.472106 127.821459 
L 214.780077 128.410054 
L 216.047796 128.707233 
L 217.277667 129.156676 
L 218.471885 129.307483 
L 220.761231 130.68774 
L 221.859899 131.157296 
L 222.930027 131.79101 
L 223.973061 131.950829 
L 224.990338 133.250011 
L 225.9831 133.41505 
L 227.899614 134.081264 
L 228.825442 135.271157 
L 229.730921 135.616925 
L 230.616925 136.140557 
L 231.484275 136.493027 
L 232.333741 137.026907 
L 233.166045 137.386342 
L 233.981866 137.930879 
L 234.781845 138.11385 
L 235.566585 138.482016 
L 236.336656 138.667223 
L 237.092597 139.415689 
L 237.834917 139.985237 
L 238.564097 140.176683 
L 239.280596 140.95063 
L 240.677259 141.3426 
L 241.358227 141.936965 
L 242.687298 141.936965 
L 243.336093 142.136826 
L 243.974828 142.136826 
L 245.223337 142.539203 
L 245.833683 142.945172 
L 246.435119 143.149525 
L 247.027901 143.976243 
L 247.612274 144.185293 
L 248.188474 144.606299 
L 249.317246 145.031239 
L 249.870243 145.031239 
L 250.415915 145.245208 
L 251.486043 145.245208 
L 252.01086 145.67619 
L 252.529076 145.893223 
L 253.040855 145.893223 
L 254.045724 146.771865 
L 255.026667 146.771865 
L 255.508516 146.994204 
L 255.984794 147.442171 
L 256.455629 147.667821 
L 257.836684 147.667821 
L 258.286936 147.894595 
L 259.608898 147.894595 
L 260.040291 148.351567 
L 260.467213 148.351567 
L 260.889756 148.581787 
L 261.30801 148.581787 
L 261.72206 149.045753 
L 262.13199 149.279523 
L 263.33786 149.279523 
L 263.732099 149.514502 
L 264.1226 149.514502 
L 264.509435 149.750702 
L 264.892672 149.750702 
L 265.272376 150.226814 
L 265.648613 150.226814 
L 266.021444 150.707964 
L 266.390932 150.707964 
L 267.120113 151.19426 
L 267.836611 151.19426 
L 268.540861 152.18274 
L 268.888523 152.18274 
L 269.575165 152.685157 
L 270.584137 152.685157 
L 271.568988 153.449348 
L 272.846536 153.449348 
L 273.159827 153.70696 
L 274.691514 153.70696 
L 274.991134 153.966039 
L 275.288591 153.966039 
L 275.877139 154.488669 
L 278.150688 154.488669 
L 278.699998 155.017376 
L 279.510469 155.017376 
L 279.777121 155.284052 
L 281.59687 155.284052 
L 281.850395 155.552303 
L 282.102369 155.552303 
L 282.352811 155.822145 
L 283.824311 155.822145 
L 284.064531 156.641416 
L 284.7769 156.641416 
L 285.011645 157.195914 
L 285.245059 157.195914 
L 285.707959 157.757258 
L 285.937473 157.757258 
L 286.3927 158.612486 
L 286.618441 158.901174 
L 288.164914 158.901174 
L 288.381175 159.191707 
L 289.864025 159.191707 
L 290.071571 159.484109 
L 291.295352 159.484109 
L 291.495828 159.778403 
L 292.091466 159.778403 
L 292.288114 160.074614 
L 292.483828 160.074614 
L 292.678616 160.372768 
L 293.257515 160.372768 
L 293.448687 160.67289 
L 293.638977 161.279143 
L 294.57746 161.279143 
L 294.762618 161.585328 
L 295.313151 161.585328 
L 295.49504 161.893588 
L 295.676128 161.893588 
L 295.856424 162.203953 
L 296.569821 162.203953 
L 296.746257 162.516451 
L 297.096877 162.516451 
L 297.271074 162.831112 
L 297.617275 162.831112 
L 297.96059 163.467042 
L 300.448124 163.467042 
L 300.768729 164.111993 
L 300.928101 164.111993 
L 301.086859 164.437932 
L 302.181358 164.437932 
L 302.335368 164.766225 
L 304.286804 164.766225 
L 304.433154 165.430007 
L 305.300505 165.430007 
L 305.443304 165.765568 
L 305.727427 165.765568 
L 305.868757 166.103624 
L 312.859374 166.103624 
L 312.97827 166.444212 
L 313.684533 166.444212 
L 313.917288 166.78737 
L 314.378891 166.78737 
L 314.607767 167.133138 
L 315.286864 167.133138 
L 315.622261 167.832664 
L 316.06525 167.832664 
L 316.394394 168.543121 
L 316.612371 168.543121 
L 316.829202 168.902555 
L 316.93719 168.902555 
L 317.259468 169.630064 
L 323.869167 169.630064 
L 324.051055 169.99823 
L 324.41244 169.99823 
L 324.859758 171.501451 
L 325.565516 171.501451 
L 325.82709 172.272118 
L 326.259388 172.272118 
L 326.431045 172.662406 
L 326.772228 172.662406 
L 326.941765 173.056073 
L 327.362582 173.056073 
L 327.529713 173.853783 
L 328.109387 173.853783 
L 328.273522 174.257948 
L 330.81445 174.257948 
L 331.044819 175.077219 
L 331.803545 175.077219 
L 332.028464 175.911523 
L 332.103165 175.911523 
L 332.252162 176.334486 
L 332.474652 176.334486 
L 332.622314 177.192404 
L 332.842819 177.192404 
L 332.98917 177.627511 
L 336.083961 177.627511 
L 336.219257 178.066821 
L 336.421372 178.066821 
L 336.6225 178.958385 
L 337.285922 178.958385 
L 337.417334 179.410809 
L 339.651679 179.410809 
L 339.775769 179.867781 
L 340.329591 179.867781 
L 340.451658 180.329392 
L 341.534286 180.329392 
L 341.65284 180.795737 
L 345.761945 180.795737 
L 345.922351 181.266915 
L 347.338577 181.266915 
L 347.492972 181.743027 
L 348.256384 181.743027 
L 348.407383 182.224178 
L 348.657825 182.224178 
L 348.807363 182.710474 
L 350.560718 182.710474 
L 350.703518 183.202028 
L 350.845824 183.202028 
L 350.98764 183.698954 
L 351.503497 183.698954 
L 351.643071 184.201371 
L 351.735858 184.201371 
L 351.874649 184.709402 
L 352.058979 184.709402 
L 352.196687 185.223173 
L 353.99012 185.223173 
L 354.121532 185.742816 
L 354.858384 185.742816 
L 354.98706 186.268467 
L 357.398911 186.268467 
L 357.519903 186.800266 
L 364.402134 186.800266 
L 364.538212 187.338359 
L 364.94377 187.338359 
L 365.078074 187.882895 
L 365.610953 187.882895 
L 365.743102 188.434033 
L 367.518441 188.434033 
L 367.644621 188.991933 
L 371.058321 188.991933 
L 371.174126 189.556764 
L 374.451676 189.556764 
L 374.584958 190.128699 
L 374.770833 190.128699 
L 374.903088 190.707921 
L 376.812399 190.707921 
L 376.938271 191.294617 
L 379.84926 191.294617 
L 379.966199 191.888982 
L 381.026745 191.888982 
L 381.140394 192.49122 
L 381.524471 192.49122 
L 381.636757 193.101541 
L 381.905 193.101541 
L 382.016255 193.720167 
L 382.237867 193.720167 
L 382.370265 194.347326 
L 384.180493 194.347326 
L 384.306802 194.983256 
L 384.369811 194.983256 
L 384.495542 195.628207 
L 388.15685 195.628207 
L 388.271554 196.282438 
L 390.009792 196.282438 
L 390.137707 196.946221 
L 391.324626 196.946221 
L 391.448529 197.619837 
L 394.463711 197.619837 
L 394.578536 198.303584 
L 394.969811 198.303584 
L 395.083236 198.99777 
L 398.912586 198.99777 
L 399.030378 199.702718 
L 407.181082 199.702718 
L 407.301543 200.418769 
L 410.793883 200.418769 
L 410.92628 201.885615 
L 411.124082 201.885615 
L 411.244495 202.637174 
L 414.156006 202.637174 
L 414.267888 203.401365 
L 414.802732 203.401365 
L 414.922871 204.17862 
L 416.60744 204.17862 
L 416.722437 204.969392 
L 418.866688 204.969392 
L 418.984616 205.774162 
L 420.818286 205.774162 
L 420.930765 206.593432 
L 426.702147 206.593432 
L 426.814657 207.427736 
L 427.601094 207.427736 
L 427.718508 208.277635 
L 430.972086 208.277635 
L 431.093792 210.026631 
L 434.822235 210.026631 
L 434.939247 210.927023 
L 438.053333 210.927023 
L 438.167217 211.845605 
L 443.792595 211.845605 
L 443.90653 212.783129 
L 451.44 212.783129 
L 451.44 212.783129 
" style="fill:none;stroke:#00ba00;stroke-linecap:square;stroke-width:1.5;"/>
   </g>
   <g id="line2d_2">
    <path clip-path="url(#pdda41e69ab)" d="M -1 68.625654 
L 72 68.878394 
L 100.556015 119.923159 
L 117.260214 129.610606 
L 129.112031 132.59578 
L 138.305015 133.580691 
L 145.816229 136.493027 
L 152.166871 138.29756 
L 157.668046 139.985237 
L 162.520427 142.136826 
L 166.86103 144.185293 
L 170.787583 146.771865 
L 174.372245 148.581787 
L 177.669814 150.950462 
L 180.722886 152.18274 
L 183.565228 154.226603 
L 186.224062 156.917819 
L 188.721652 158.901174 
L 191.076443 161.279143 
L 193.303884 163.147965 
L 195.417045 165.096905 
L 197.427084 166.103624 
L 199.343598 167.481556 
L 201.174905 168.186505 
L 202.92826 169.264854 
L 206.225829 170.743628 
L 207.780641 173.056073 
L 209.278901 174.257948 
L 210.72458 175.077219 
L 213.472106 177.627511 
L 216.047796 180.329392 
L 217.277667 181.266915 
L 218.471885 183.698954 
L 219.632458 185.742816 
L 220.761231 186.268467 
L 221.859899 189.556764 
L 222.930027 190.128699 
L 223.973061 191.294617 
L 224.990338 191.294617 
L 226.9525 192.49122 
L 227.899614 193.720167 
L 228.825442 193.720167 
L 229.730921 194.347326 
L 230.616925 195.628207 
L 231.484275 196.282438 
L 232.333741 198.99777 
L 233.166045 198.99777 
L 233.981866 200.418769 
L 235.566585 201.885615 
L 237.834917 201.885615 
L 238.564097 203.401365 
L 239.280596 203.401365 
L 239.984846 205.774162 
L 241.358227 205.774162 
L 242.028122 206.593432 
L 242.687298 209.143724 
L 243.336093 210.026631 
L 243.974828 210.026631 
L 244.603812 211.845605 
L 245.223337 214.718241 
L 245.833683 216.739387 
L 247.027901 216.739387 
L 247.612274 218.854572 
L 248.188474 219.950247 
L 249.317246 219.950247 
L 249.870243 221.072977 
L 252.01086 221.072977 
L 252.529076 222.224135 
L 253.546353 222.224135 
L 254.045724 223.405195 
L 255.026667 223.405195 
L 255.984794 228.462434 
L 257.381457 228.462434 
L 258.286936 231.218932 
L 258.73232 231.218932 
L 259.17294 232.662491 
L 259.608898 235.694833 
L 260.467213 235.694833 
L 260.889756 237.290375 
L 262.537881 237.290375 
L 262.939812 238.94395 
L 268.540861 238.94395 
L 268.888523 240.659938 
L 270.584137 240.659938 
L 270.915044 242.443236 
L 272.846536 242.443236 
L 273.159827 244.299342 
L 273.779352 244.299342 
L 274.389698 248.2556 
L 277.593955 248.2556 
L 277.873262 250.370786 
L 280.042058 250.370786 
L 280.305303 254.921409 
L 282.60174 254.921409 
L 282.849174 257.379753 
L 283.095131 257.379753 
L 283.339628 259.978648 
L 285.477159 259.978648 
L 285.707959 265.669601 
L 287.509235 265.669601 
L 287.728956 268.806589 
L 287.947511 268.806589 
L 288.164914 272.176151 
L 292.288114 272.176151 
L 292.483828 275.815556 
L 293.828392 275.815556 
L 294.016939 279.771814 
L 299.471059 279.771814 
L 299.799329 288.895967 
L 304.139931 288.895967 
L 304.286804 294.251359 
L 305.727427 294.251359 
L 305.868757 300.322803 
L 314.033175 300.322803 
L 314.148736 307.33177 
L 315.733456 307.33177 
L 315.954949 315.621618 
L 328.027075 315.621618 
L 328.191536 325.767573 
L 328.273522 325.767573 
L 328.437004 338.847983 
L 363.576089 338.847983 
L 363.714918 357.283786 
L 394.986033 357.283786 
L 395.099414 388.8 
L 451.44 388.8 
L 451.44 388.8 
" style="fill:none;stroke:#00ba00;stroke-dasharray:6.000000,6.000000;stroke-dashoffset:0.0;stroke-width:1.5;"/>
   </g>
   <g id="line2d_3">
    <path clip-path="url(#pdda41e69ab)" d="M -1 72.235814 
L 72 72.497809 
L 100.556015 126.809405 
L 117.260214 136.670291 
L 129.112031 140.176683 
L 138.305015 143.76815 
L 145.816229 146.994204 
L 157.668046 151.19426 
L 166.86103 153.966039 
L 170.787583 155.552303 
L 174.372245 157.475719 
L 177.669814 158.901174 
L 180.722886 160.372768 
L 186.224062 162.831112 
L 188.721652 164.766225 
L 191.076443 168.543121 
L 195.417045 170.743628 
L 197.427084 173.056073 
L 199.343598 173.453179 
L 202.92826 179.867781 
L 204.610029 180.795737 
L 206.225829 182.224178 
L 207.780641 183.202028 
L 209.278901 185.742816 
L 210.72458 186.268467 
L 212.121244 188.434033 
L 213.472106 188.434033 
L 214.780077 188.991933 
L 217.277667 191.294617 
L 218.471885 191.888982 
L 219.632458 191.888982 
L 220.761231 193.720167 
L 221.859899 196.282438 
L 223.973061 197.619837 
L 224.990338 199.702718 
L 225.9831 201.146277 
L 226.9525 203.401365 
L 228.825442 204.969392 
L 229.730921 206.593432 
L 231.484275 208.277635 
L 232.333741 208.277635 
L 233.981866 210.026631 
L 234.781845 210.026631 
L 235.566585 210.927023 
L 238.564097 210.927023 
L 239.984846 212.783129 
L 240.677259 214.718241 
L 242.687298 214.718241 
L 243.336093 216.739387 
L 243.974828 216.739387 
L 245.223337 218.854572 
L 245.833683 221.072977 
L 246.435119 222.224135 
L 247.027901 224.617755 
L 248.188474 227.144421 
L 250.954453 227.144421 
L 251.486043 228.462434 
L 253.546353 228.462434 
L 254.045724 229.819797 
L 257.381457 229.819797 
L 258.73232 234.153388 
L 260.467213 234.153388 
L 260.889756 235.694833 
L 261.72206 235.694833 
L 262.13199 237.290375 
L 262.939812 237.290375 
L 263.732099 240.659938 
L 264.1226 240.659938 
L 264.892672 244.299342 
L 265.648613 244.299342 
L 266.021444 246.234455 
L 271.243313 246.234455 
L 271.568988 248.2556 
L 272.212714 248.2556 
L 272.530844 250.370786 
L 276.457396 250.370786 
L 276.744489 252.589191 
L 277.029595 252.589191 
L 277.312741 254.921409 
L 279.510469 254.921409 
L 279.777121 257.379753 
L 280.042058 257.379753 
L 280.566876 262.735146 
L 281.341776 262.735146 
L 281.59687 265.669601 
L 282.102369 265.669601 
L 282.352811 268.806589 
L 285.937473 268.806589 
L 286.165715 272.176151 
L 293.257515 272.176151 
L 293.448687 275.815556 
L 301.086859 275.815556 
L 301.245008 279.771814 
L 302.02677 279.771814 
L 302.181358 284.105405 
L 311.528351 284.105405 
L 311.651146 288.895967 
L 316.93719 288.895967 
L 317.152322 294.251359 
L 319.951727 294.251359 
L 320.151716 300.322803 
L 321.909227 300.322803 
L 322.099957 307.33177 
L 325.913913 307.33177 
L 326.087012 315.621618 
L 339.713771 315.621618 
L 339.837674 325.767573 
L 353.46024 325.767573 
L 353.59335 338.847983 
L 440.483449 338.847983 
L 440.59618 357.283786 
L 451.44 357.283786 
L 451.44 357.283786 
" style="fill:none;stroke:#ffbc42;stroke-linecap:square;stroke-width:1.5;"/>
   </g>
   <g id="line2d_4">
    <path clip-path="url(#pdda41e69ab)" d="M -1 81.288674 
L 72 81.573872 
L 100.556015 155.284052 
L 117.260214 169.264854 
L 129.112031 174.665738 
L 138.305015 179.867781 
L 145.816229 182.224178 
L 152.166871 186.268467 
L 157.668046 191.888982 
L 162.520427 194.347326 
L 166.86103 197.619837 
L 170.787583 201.885615 
L 174.372245 204.17862 
L 177.669814 206.593432 
L 180.722886 210.026631 
L 183.565228 211.845605 
L 186.224062 213.740391 
L 188.721652 214.718241 
L 191.076443 218.854572 
L 193.303884 224.617755 
L 195.417045 225.863539 
L 197.427084 231.218932 
L 199.343598 235.694833 
L 201.174905 238.94395 
L 202.92826 244.299342 
L 204.610029 244.299342 
L 206.225829 248.2556 
L 207.780641 248.2556 
L 209.278901 252.589191 
L 212.121244 257.379753 
L 213.472106 259.978648 
L 214.780077 259.978648 
L 216.047796 262.735146 
L 217.277667 268.806589 
L 219.632458 268.806589 
L 220.761231 272.176151 
L 221.859899 272.176151 
L 222.930027 275.815556 
L 225.9831 275.815556 
L 226.9525 279.771814 
L 227.899614 279.771814 
L 228.825442 284.105405 
L 231.484275 284.105405 
L 232.333741 288.895967 
L 233.166045 294.251359 
L 233.981866 300.322803 
L 236.336656 300.322803 
L 237.092597 307.33177 
L 240.677259 307.33177 
L 241.358227 315.621618 
L 243.336093 315.621618 
L 243.974828 325.767573 
L 245.833683 325.767573 
L 246.435119 338.847983 
L 250.954453 338.847983 
L 251.486043 357.283786 
L 288.381175 357.283786 
L 288.596306 388.8 
L 292.091466 388.8 
L 292.091746 433 
L 292.091746 433 
" style="fill:none;stroke:#ffbc42;stroke-dasharray:6.000000,6.000000;stroke-dashoffset:0.0;stroke-width:1.5;"/>
   </g>
   <g id="line2d_5">
    <path clip-path="url(#pdda41e69ab)" d="M -1 92.005871 
L 72 92.31854 
L 100.556015 171.885151 
L 117.260214 191.888982 
L 129.112031 201.146277 
L 138.305015 206.593432 
L 145.816229 211.845605 
L 152.166871 216.739387 
L 157.668046 219.950247 
L 162.520427 224.617755 
L 166.86103 227.144421 
L 170.787583 231.218932 
L 174.372245 231.218932 
L 177.669814 234.153388 
L 180.722886 242.443236 
L 183.565228 242.443236 
L 186.224062 252.589191 
L 188.721652 259.978648 
L 191.076443 262.735146 
L 193.303884 265.669601 
L 195.417045 268.806589 
L 201.174905 268.806589 
L 202.92826 272.176151 
L 204.610029 275.815556 
L 209.278901 275.815556 
L 210.72458 279.771814 
L 212.121244 279.771814 
L 213.472106 284.105405 
L 214.780077 288.895967 
L 216.047796 294.251359 
L 217.277667 300.322803 
L 220.761231 300.322803 
L 221.859899 307.33177 
L 222.930027 315.621618 
L 225.9831 315.621618 
L 226.9525 325.767573 
L 228.825442 325.767573 
L 229.730921 338.847983 
L 231.484275 338.847983 
L 232.333741 357.283786 
L 242.028122 357.283786 
L 242.687298 388.8 
L 247.612274 388.8 
L 247.613093 433 
L 247.613093 433 
" style="fill:none;stroke:#f46036;stroke-linecap:square;stroke-width:1.5;"/>
   </g>
   <g id="line2d_6">
    <path clip-path="url(#pdda41e69ab)" d="M -1 95.764171 
L 72 96.086473 
L 100.556015 198.99777 
L 117.260214 259.978648 
L 129.112031 265.669601 
L 138.305015 265.669601 
L 145.816229 272.176151 
L 152.166871 288.895967 
L 157.668046 288.895967 
L 162.520427 294.251359 
L 166.86103 294.251359 
L 170.787583 300.322803 
L 191.076443 300.322803 
L 193.303884 307.33177 
L 197.427084 307.33177 
L 199.343598 315.621618 
L 202.92826 315.621618 
L 204.610029 325.767573 
L 206.225829 338.847983 
L 207.780641 357.283786 
L 209.278901 388.8 
L 210.72458 388.8 
L 210.726566 433 
L 210.726566 433 
" style="fill:none;stroke:#2e294e;stroke-linecap:square;stroke-width:1.5;"/>
   </g>
   <g id="line2d_7">
    <path clip-path="url(#pdda41e69ab)" d="M -1 99.388224 
L 72 99.719815 
L 100.556015 224.617755 
L 117.260214 300.322803 
L 129.112031 325.767573 
L 138.305015 325.767573 
L 145.816229 338.847983 
L 152.166871 338.847983 
L 157.668046 357.283786 
L 166.86103 357.283786 
L 170.787583 388.8 
L 212.121244 388.8 
L 212.123164 433 
L 212.123164 433 
" style="fill:none;stroke:#73d2de;stroke-linecap:square;stroke-width:1.5;"/>
   </g>
   <g id="patch_3">
    <path d="M 72 388.8 
L 72 43.2 
" style="fill:none;stroke:#000000;stroke-linecap:square;stroke-linejoin:miter;"/>
   </g>
   <g id="patch_4">
    <path d="M 72 43.2 
L 451.44 43.2 
" style="fill:none;stroke:#000000;stroke-linecap:square;stroke-linejoin:miter;"/>
   </g>
   <g id="patch_5">
    <path d="M 451.44 388.8 
L 451.44 43.2 
" style="fill:none;stroke:#000000;stroke-linecap:square;stroke-linejoin:miter;"/>
   </g>
   <g id="patch_6">
    <path d="M 72 388.8 
L 451.44 388.8 
" style="fill:none;stroke:#000000;stroke-linecap:square;stroke-linejoin:miter;"/>
   </g>
   <g id="matplotlib.axis_1">
    <g id="xtick_1">
     <g id="line2d_8">
      <defs>
       <path d="M 0 0 
L 0 -4 
" id="m762d29945c" style="stroke:#000000;stroke-width:0.5;"/>
      </defs>
      <g>
       <use style="stroke:#000000;stroke-width:0.5;" x="72.0" xlink:href="#m762d29945c" y="388.8"/>
      </g>
     </g>
     <g id="line2d_9">
      <defs>
       <path d="M 0 0 
L 0 4 
" id="mf705d0b433" style="stroke:#000000;stroke-width:0.5;"/>
      </defs>
      <g>
       <use style="stroke:#000000;stroke-width:0.5;" x="72.0" xlink:href="#mf705d0b433" y="43.2"/>
      </g>
     </g>
     <g id="text_1">
      <!-- $\mathdefault{10^{0}}$ -->
      <defs>
       <path d="M 12.40625 8.296875 
L 28.515625 8.296875 
L 28.515625 63.921875 
L 10.984375 60.40625 
L 10.984375 69.390625 
L 28.421875 72.90625 
L 38.28125 72.90625 
L 38.28125 8.296875 
L 54.390625 8.296875 
L 54.390625 0 
L 12.40625 0 
z
" id="BitstreamVeraSans-Roman-31"/>
       <path d="M 31.78125 66.40625 
Q 24.171875 66.40625 20.328125 58.90625 
Q 16.5 51.421875 16.5 36.375 
Q 16.5 21.390625 20.328125 13.890625 
Q 24.171875 6.390625 31.78125 6.390625 
Q 39.453125 6.390625 43.28125 13.890625 
Q 47.125 21.390625 47.125 36.375 
Q 47.125 51.421875 43.28125 58.90625 
Q 39.453125 66.40625 31.78125 66.40625 
M 31.78125 74.21875 
Q 44.046875 74.21875 50.515625 64.515625 
Q 56.984375 54.828125 56.984375 36.375 
Q 56.984375 17.96875 50.515625 8.265625 
Q 44.046875 -1.421875 31.78125 -1.421875 
Q 19.53125 -1.421875 13.0625 8.265625 
Q 6.59375 17.96875 6.59375 36.375 
Q 6.59375 54.828125 13.0625 64.515625 
Q 19.53125 74.21875 31.78125 74.21875 
" id="BitstreamVeraSans-Roman-30"/>
      </defs>
      <g transform="translate(60.84 402.544375)scale(0.12 -0.12)">
       <use transform="translate(0.0 0.796875)" xlink:href="#BitstreamVeraSans-Roman-31"/>
       <use transform="translate(63.623046875 0.796875)" xlink:href="#BitstreamVeraSans-Roman-30"/>
       <use transform="translate(132.75859375 48.046875)scale(0.7)" xlink:href="#BitstreamVeraSans-Roman-30"/>
      </g>
     </g>
    </g>
    <g id="xtick_2">
     <g id="line2d_10">
      <g>
       <use style="stroke:#000000;stroke-width:0.5;" x="166.861029992" xlink:href="#m762d29945c" y="388.8"/>
      </g>
     </g>
     <g id="line2d_11">
      <g>
       <use style="stroke:#000000;stroke-width:0.5;" x="166.861029992" xlink:href="#mf705d0b433" y="43.2"/>
      </g>
     </g>
     <g id="text_2">
      <!-- $\mathdefault{10^{1}}$ -->
      <g transform="translate(155.701029992 402.424375)scale(0.12 -0.12)">
       <use transform="translate(0.0 0.7156250000000028)" xlink:href="#BitstreamVeraSans-Roman-31"/>
       <use transform="translate(63.623046875 0.7156250000000028)" xlink:href="#BitstreamVeraSans-Roman-30"/>
       <use transform="translate(132.75859375 47.965625)scale(0.7)" xlink:href="#BitstreamVeraSans-Roman-31"/>
      </g>
     </g>
    </g>
    <g id="xtick_3">
     <g id="line2d_12">
      <g>
       <use style="stroke:#000000;stroke-width:0.5;" x="261.722059984" xlink:href="#m762d29945c" y="388.8"/>
      </g>
     </g>
     <g id="line2d_13">
      <g>
       <use style="stroke:#000000;stroke-width:0.5;" x="261.722059984" xlink:href="#mf705d0b433" y="43.2"/>
      </g>
     </g>
     <g id="text_3">
      <!-- $\mathdefault{10^{2}}$ -->
      <defs>
       <path d="M 19.1875 8.296875 
L 53.609375 8.296875 
L 53.609375 0 
L 7.328125 0 
L 7.328125 8.296875 
Q 12.9375 14.109375 22.625 23.890625 
Q 32.328125 33.6875 34.8125 36.53125 
Q 39.546875 41.84375 41.421875 45.53125 
Q 43.3125 49.21875 43.3125 52.78125 
Q 43.3125 58.59375 39.234375 62.25 
Q 35.15625 65.921875 28.609375 65.921875 
Q 23.96875 65.921875 18.8125 64.3125 
Q 13.671875 62.703125 7.8125 59.421875 
L 7.8125 69.390625 
Q 13.765625 71.78125 18.9375 73 
Q 24.125 74.21875 28.421875 74.21875 
Q 39.75 74.21875 46.484375 68.546875 
Q 53.21875 62.890625 53.21875 53.421875 
Q 53.21875 48.921875 51.53125 44.890625 
Q 49.859375 40.875 45.40625 35.40625 
Q 44.1875 33.984375 37.640625 27.21875 
Q 31.109375 20.453125 19.1875 8.296875 
" id="BitstreamVeraSans-Roman-32"/>
      </defs>
      <g transform="translate(250.562059984 402.544375)scale(0.12 -0.12)">
       <use transform="translate(0.0 0.796875)" xlink:href="#BitstreamVeraSans-Roman-31"/>
       <use transform="translate(63.623046875 0.796875)" xlink:href="#BitstreamVeraSans-Roman-30"/>
       <use transform="translate(132.75859375 48.046875)scale(0.7)" xlink:href="#BitstreamVeraSans-Roman-32"/>
      </g>
     </g>
    </g>
    <g id="xtick_4">
     <g id="line2d_14">
      <g>
       <use style="stroke:#000000;stroke-width:0.5;" x="356.583089976" xlink:href="#m762d29945c" y="388.8"/>
      </g>
     </g>
     <g id="line2d_15">
      <g>
       <use style="stroke:#000000;stroke-width:0.5;" x="356.583089976" xlink:href="#mf705d0b433" y="43.2"/>
      </g>
     </g>
     <g id="text_4">
      <!-- $\mathdefault{10^{3}}$ -->
      <defs>
       <path d="M 40.578125 39.3125 
Q 47.65625 37.796875 51.625 33 
Q 55.609375 28.21875 55.609375 21.1875 
Q 55.609375 10.40625 48.1875 4.484375 
Q 40.765625 -1.421875 27.09375 -1.421875 
Q 22.515625 -1.421875 17.65625 -0.515625 
Q 12.796875 0.390625 7.625 2.203125 
L 7.625 11.71875 
Q 11.71875 9.328125 16.59375 8.109375 
Q 21.484375 6.890625 26.8125 6.890625 
Q 36.078125 6.890625 40.9375 10.546875 
Q 45.796875 14.203125 45.796875 21.1875 
Q 45.796875 27.640625 41.28125 31.265625 
Q 36.765625 34.90625 28.71875 34.90625 
L 20.21875 34.90625 
L 20.21875 43.015625 
L 29.109375 43.015625 
Q 36.375 43.015625 40.234375 45.921875 
Q 44.09375 48.828125 44.09375 54.296875 
Q 44.09375 59.90625 40.109375 62.90625 
Q 36.140625 65.921875 28.71875 65.921875 
Q 24.65625 65.921875 20.015625 65.03125 
Q 15.375 64.15625 9.8125 62.3125 
L 9.8125 71.09375 
Q 15.4375 72.65625 20.34375 73.4375 
Q 25.25 74.21875 29.59375 74.21875 
Q 40.828125 74.21875 47.359375 69.109375 
Q 53.90625 64.015625 53.90625 55.328125 
Q 53.90625 49.265625 50.4375 45.09375 
Q 46.96875 40.921875 40.578125 39.3125 
" id="BitstreamVeraSans-Roman-33"/>
      </defs>
      <g transform="translate(345.423089976 402.544375)scale(0.12 -0.12)">
       <use transform="translate(0.0 0.796875)" xlink:href="#BitstreamVeraSans-Roman-31"/>
       <use transform="translate(63.623046875 0.796875)" xlink:href="#BitstreamVeraSans-Roman-30"/>
       <use transform="translate(132.75859375 48.046875)scale(0.7)" xlink:href="#BitstreamVeraSans-Roman-33"/>
      </g>
     </g>
    </g>
    <g id="xtick_5">
     <g id="text_5">
      <!-- $\mathdefault{10^{4}}$ -->
      <defs>
       <path d="M 37.796875 64.3125 
L 12.890625 25.390625 
L 37.796875 25.390625 
z
M 35.203125 72.90625 
L 47.609375 72.90625 
L 47.609375 25.390625 
L 58.015625 25.390625 
L 58.015625 17.1875 
L 47.609375 17.1875 
L 47.609375 0 
L 37.796875 0 
L 37.796875 17.1875 
L 4.890625 17.1875 
L 4.890625 26.703125 
z
" id="BitstreamVeraSans-Roman-34"/>
      </defs>
      <g transform="translate(440.284119968 402.424375)scale(0.12 -0.12)">
       <use transform="translate(0.0 0.7156250000000028)" xlink:href="#BitstreamVeraSans-Roman-31"/>
       <use transform="translate(63.623046875 0.7156250000000028)" xlink:href="#BitstreamVeraSans-Roman-30"/>
       <use transform="translate(132.75859375 47.965625)scale(0.7)" xlink:href="#BitstreamVeraSans-Roman-34"/>
      </g>
     </g>
    </g>
    <g id="xtick_6">
     <g id="line2d_16">
      <defs>
       <path d="M 0 0 
L 0 -2 
" id="m1b192b74df" style="stroke:#000000;stroke-width:0.5;"/>
      </defs>
      <g>
       <use style="stroke:#000000;stroke-width:0.5;" x="100.556015447" xlink:href="#m1b192b74df" y="388.8"/>
      </g>
     </g>
     <g id="line2d_17">
      <defs>
       <path d="M 0 0 
L 0 2 
" id="maa877d36fb" style="stroke:#000000;stroke-width:0.5;"/>
      </defs>
      <g>
       <use style="stroke:#000000;stroke-width:0.5;" x="100.556015447" xlink:href="#maa877d36fb" y="43.2"/>
      </g>
     </g>
    </g>
    <g id="xtick_7">
     <g id="line2d_18">
      <g>
       <use style="stroke:#000000;stroke-width:0.5;" x="117.260213654" xlink:href="#m1b192b74df" y="388.8"/>
      </g>
     </g>
     <g id="line2d_19">
      <g>
       <use style="stroke:#000000;stroke-width:0.5;" x="117.260213654" xlink:href="#maa877d36fb" y="43.2"/>
      </g>
     </g>
    </g>
    <g id="xtick_8">
     <g id="line2d_20">
      <g>
       <use style="stroke:#000000;stroke-width:0.5;" x="129.112030894" xlink:href="#m1b192b74df" y="388.8"/>
      </g>
     </g>
     <g id="line2d_21">
      <g>
       <use style="stroke:#000000;stroke-width:0.5;" x="129.112030894" xlink:href="#maa877d36fb" y="43.2"/>
      </g>
     </g>
    </g>
    <g id="xtick_9">
     <g id="line2d_22">
      <g>
       <use style="stroke:#000000;stroke-width:0.5;" x="138.305014545" xlink:href="#m1b192b74df" y="388.8"/>
      </g>
     </g>
     <g id="line2d_23">
      <g>
       <use style="stroke:#000000;stroke-width:0.5;" x="138.305014545" xlink:href="#maa877d36fb" y="43.2"/>
      </g>
     </g>
    </g>
    <g id="xtick_10">
     <g id="line2d_24">
      <g>
       <use style="stroke:#000000;stroke-width:0.5;" x="145.816229101" xlink:href="#m1b192b74df" y="388.8"/>
      </g>
     </g>
     <g id="line2d_25">
      <g>
       <use style="stroke:#000000;stroke-width:0.5;" x="145.816229101" xlink:href="#maa877d36fb" y="43.2"/>
      </g>
     </g>
    </g>
    <g id="xtick_11">
     <g id="line2d_26">
      <g>
       <use style="stroke:#000000;stroke-width:0.5;" x="152.16687052" xlink:href="#m1b192b74df" y="388.8"/>
      </g>
     </g>
     <g id="line2d_27">
      <g>
       <use style="stroke:#000000;stroke-width:0.5;" x="152.16687052" xlink:href="#maa877d36fb" y="43.2"/>
      </g>
     </g>
    </g>
    <g id="xtick_12">
     <g id="line2d_28">
      <g>
       <use style="stroke:#000000;stroke-width:0.5;" x="157.668046342" xlink:href="#m1b192b74df" y="388.8"/>
      </g>
     </g>
     <g id="line2d_29">
      <g>
       <use style="stroke:#000000;stroke-width:0.5;" x="157.668046342" xlink:href="#maa877d36fb" y="43.2"/>
      </g>
     </g>
    </g>
    <g id="xtick_13">
     <g id="line2d_30">
      <g>
       <use style="stroke:#000000;stroke-width:0.5;" x="162.520427308" xlink:href="#m1b192b74df" y="388.8"/>
      </g>
     </g>
     <g id="line2d_31">
      <g>
       <use style="stroke:#000000;stroke-width:0.5;" x="162.520427308" xlink:href="#maa877d36fb" y="43.2"/>
      </g>
     </g>
    </g>
    <g id="xtick_14">
     <g id="line2d_32">
      <g>
       <use style="stroke:#000000;stroke-width:0.5;" x="195.417045439" xlink:href="#m1b192b74df" y="388.8"/>
      </g>
     </g>
     <g id="line2d_33">
      <g>
       <use style="stroke:#000000;stroke-width:0.5;" x="195.417045439" xlink:href="#maa877d36fb" y="43.2"/>
      </g>
     </g>
    </g>
    <g id="xtick_15">
     <g id="line2d_34">
      <g>
       <use style="stroke:#000000;stroke-width:0.5;" x="212.121243646" xlink:href="#m1b192b74df" y="388.8"/>
      </g>
     </g>
     <g id="line2d_35">
      <g>
       <use style="stroke:#000000;stroke-width:0.5;" x="212.121243646" xlink:href="#maa877d36fb" y="43.2"/>
      </g>
     </g>
    </g>
    <g id="xtick_16">
     <g id="line2d_36">
      <g>
       <use style="stroke:#000000;stroke-width:0.5;" x="223.973060886" xlink:href="#m1b192b74df" y="388.8"/>
      </g>
     </g>
     <g id="line2d_37">
      <g>
       <use style="stroke:#000000;stroke-width:0.5;" x="223.973060886" xlink:href="#maa877d36fb" y="43.2"/>
      </g>
     </g>
    </g>
    <g id="xtick_17">
     <g id="line2d_38">
      <g>
       <use style="stroke:#000000;stroke-width:0.5;" x="233.166044537" xlink:href="#m1b192b74df" y="388.8"/>
      </g>
     </g>
     <g id="line2d_39">
      <g>
       <use style="stroke:#000000;stroke-width:0.5;" x="233.166044537" xlink:href="#maa877d36fb" y="43.2"/>
      </g>
     </g>
    </g>
    <g id="xtick_18">
     <g id="line2d_40">
      <g>
       <use style="stroke:#000000;stroke-width:0.5;" x="240.677259093" xlink:href="#m1b192b74df" y="388.8"/>
      </g>
     </g>
     <g id="line2d_41">
      <g>
       <use style="stroke:#000000;stroke-width:0.5;" x="240.677259093" xlink:href="#maa877d36fb" y="43.2"/>
      </g>
     </g>
    </g>
    <g id="xtick_19">
     <g id="line2d_42">
      <g>
       <use style="stroke:#000000;stroke-width:0.5;" x="247.027900512" xlink:href="#m1b192b74df" y="388.8"/>
      </g>
     </g>
     <g id="line2d_43">
      <g>
       <use style="stroke:#000000;stroke-width:0.5;" x="247.027900512" xlink:href="#maa877d36fb" y="43.2"/>
      </g>
     </g>
    </g>
    <g id="xtick_20">
     <g id="line2d_44">
      <g>
       <use style="stroke:#000000;stroke-width:0.5;" x="252.529076334" xlink:href="#m1b192b74df" y="388.8"/>
      </g>
     </g>
     <g id="line2d_45">
      <g>
       <use style="stroke:#000000;stroke-width:0.5;" x="252.529076334" xlink:href="#maa877d36fb" y="43.2"/>
      </g>
     </g>
    </g>
    <g id="xtick_21">
     <g id="line2d_46">
      <g>
       <use style="stroke:#000000;stroke-width:0.5;" x="257.3814573" xlink:href="#m1b192b74df" y="388.8"/>
      </g>
     </g>
     <g id="line2d_47">
      <g>
       <use style="stroke:#000000;stroke-width:0.5;" x="257.3814573" xlink:href="#maa877d36fb" y="43.2"/>
      </g>
     </g>
    </g>
    <g id="xtick_22">
     <g id="line2d_48">
      <g>
       <use style="stroke:#000000;stroke-width:0.5;" x="290.278075431" xlink:href="#m1b192b74df" y="388.8"/>
      </g>
     </g>
     <g id="line2d_49">
      <g>
       <use style="stroke:#000000;stroke-width:0.5;" x="290.278075431" xlink:href="#maa877d36fb" y="43.2"/>
      </g>
     </g>
    </g>
    <g id="xtick_23">
     <g id="line2d_50">
      <g>
       <use style="stroke:#000000;stroke-width:0.5;" x="306.982273638" xlink:href="#m1b192b74df" y="388.8"/>
      </g>
     </g>
     <g id="line2d_51">
      <g>
       <use style="stroke:#000000;stroke-width:0.5;" x="306.982273638" xlink:href="#maa877d36fb" y="43.2"/>
      </g>
     </g>
    </g>
    <g id="xtick_24">
     <g id="line2d_52">
      <g>
       <use style="stroke:#000000;stroke-width:0.5;" x="318.834090878" xlink:href="#m1b192b74df" y="388.8"/>
      </g>
     </g>
     <g id="line2d_53">
      <g>
       <use style="stroke:#000000;stroke-width:0.5;" x="318.834090878" xlink:href="#maa877d36fb" y="43.2"/>
      </g>
     </g>
    </g>
    <g id="xtick_25">
     <g id="line2d_54">
      <g>
       <use style="stroke:#000000;stroke-width:0.5;" x="328.027074529" xlink:href="#m1b192b74df" y="388.8"/>
      </g>
     </g>
     <g id="line2d_55">
      <g>
       <use style="stroke:#000000;stroke-width:0.5;" x="328.027074529" xlink:href="#maa877d36fb" y="43.2"/>
      </g>
     </g>
    </g>
    <g id="xtick_26">
     <g id="line2d_56">
      <g>
       <use style="stroke:#000000;stroke-width:0.5;" x="335.538289085" xlink:href="#m1b192b74df" y="388.8"/>
      </g>
     </g>
     <g id="line2d_57">
      <g>
       <use style="stroke:#000000;stroke-width:0.5;" x="335.538289085" xlink:href="#maa877d36fb" y="43.2"/>
      </g>
     </g>
    </g>
    <g id="xtick_27">
     <g id="line2d_58">
      <g>
       <use style="stroke:#000000;stroke-width:0.5;" x="341.888930504" xlink:href="#m1b192b74df" y="388.8"/>
      </g>
     </g>
     <g id="line2d_59">
      <g>
       <use style="stroke:#000000;stroke-width:0.5;" x="341.888930504" xlink:href="#maa877d36fb" y="43.2"/>
      </g>
     </g>
    </g>
    <g id="xtick_28">
     <g id="line2d_60">
      <g>
       <use style="stroke:#000000;stroke-width:0.5;" x="347.390106326" xlink:href="#m1b192b74df" y="388.8"/>
      </g>
     </g>
     <g id="line2d_61">
      <g>
       <use style="stroke:#000000;stroke-width:0.5;" x="347.390106326" xlink:href="#maa877d36fb" y="43.2"/>
      </g>
     </g>
    </g>
    <g id="xtick_29">
     <g id="line2d_62">
      <g>
       <use style="stroke:#000000;stroke-width:0.5;" x="352.242487292" xlink:href="#m1b192b74df" y="388.8"/>
      </g>
     </g>
     <g id="line2d_63">
      <g>
       <use style="stroke:#000000;stroke-width:0.5;" x="352.242487292" xlink:href="#maa877d36fb" y="43.2"/>
      </g>
     </g>
    </g>
    <g id="xtick_30">
     <g id="line2d_64">
      <g>
       <use style="stroke:#000000;stroke-width:0.5;" x="385.139105423" xlink:href="#m1b192b74df" y="388.8"/>
      </g>
     </g>
     <g id="line2d_65">
      <g>
       <use style="stroke:#000000;stroke-width:0.5;" x="385.139105423" xlink:href="#maa877d36fb" y="43.2"/>
      </g>
     </g>
    </g>
    <g id="xtick_31">
     <g id="line2d_66">
      <g>
       <use style="stroke:#000000;stroke-width:0.5;" x="401.84330363" xlink:href="#m1b192b74df" y="388.8"/>
      </g>
     </g>
     <g id="line2d_67">
      <g>
       <use style="stroke:#000000;stroke-width:0.5;" x="401.84330363" xlink:href="#maa877d36fb" y="43.2"/>
      </g>
     </g>
    </g>
    <g id="xtick_32">
     <g id="line2d_68">
      <g>
       <use style="stroke:#000000;stroke-width:0.5;" x="413.695120871" xlink:href="#m1b192b74df" y="388.8"/>
      </g>
     </g>
     <g id="line2d_69">
      <g>
       <use style="stroke:#000000;stroke-width:0.5;" x="413.695120871" xlink:href="#maa877d36fb" y="43.2"/>
      </g>
     </g>
    </g>
    <g id="xtick_33">
     <g id="line2d_70">
      <g>
       <use style="stroke:#000000;stroke-width:0.5;" x="422.888104521" xlink:href="#m1b192b74df" y="388.8"/>
      </g>
     </g>
     <g id="line2d_71">
      <g>
       <use style="stroke:#000000;stroke-width:0.5;" x="422.888104521" xlink:href="#maa877d36fb" y="43.2"/>
      </g>
     </g>
    </g>
    <g id="xtick_34">
     <g id="line2d_72">
      <g>
       <use style="stroke:#000000;stroke-width:0.5;" x="430.399319077" xlink:href="#m1b192b74df" y="388.8"/>
      </g>
     </g>
     <g id="line2d_73">
      <g>
       <use style="stroke:#000000;stroke-width:0.5;" x="430.399319077" xlink:href="#maa877d36fb" y="43.2"/>
      </g>
     </g>
    </g>
    <g id="xtick_35">
     <g id="line2d_74">
      <g>
       <use style="stroke:#000000;stroke-width:0.5;" x="436.749960496" xlink:href="#m1b192b74df" y="388.8"/>
      </g>
     </g>
     <g id="line2d_75">
      <g>
       <use style="stroke:#000000;stroke-width:0.5;" x="436.749960496" xlink:href="#maa877d36fb" y="43.2"/>
      </g>
     </g>
    </g>
    <g id="xtick_36">
     <g id="line2d_76">
      <g>
       <use style="stroke:#000000;stroke-width:0.5;" x="442.251136318" xlink:href="#m1b192b74df" y="388.8"/>
      </g>
     </g>
     <g id="line2d_77">
      <g>
       <use style="stroke:#000000;stroke-width:0.5;" x="442.251136318" xlink:href="#maa877d36fb" y="43.2"/>
      </g>
     </g>
    </g>
    <g id="xtick_37">
     <g id="line2d_78">
      <g>
       <use style="stroke:#000000;stroke-width:0.5;" x="447.103517284" xlink:href="#m1b192b74df" y="388.8"/>
      </g>
     </g>
     <g id="line2d_79">
      <g>
       <use style="stroke:#000000;stroke-width:0.5;" x="447.103517284" xlink:href="#maa877d36fb" y="43.2"/>
      </g>
     </g>
    </g>
    <g id="text_6">
     <!-- $t$ -->
     <defs>
      <path d="M 6.203125 8.109375 
Q 6.203125 9.578125 6.5 10.890625 
L 13.71875 39.59375 
L 3.21875 39.59375 
Q 2.203125 39.59375 2.203125 40.921875 
Q 2.59375 43.109375 3.515625 43.109375 
L 14.59375 43.109375 
L 18.609375 59.421875 
Q 19 60.75 20.171875 61.671875 
Q 21.34375 62.59375 22.796875 62.59375 
Q 24.078125 62.59375 24.921875 61.828125 
Q 25.78125 61.078125 25.78125 59.8125 
Q 25.78125 59.515625 25.75 59.34375 
Q 25.734375 59.1875 25.6875 58.984375 
L 21.6875 43.109375 
L 31.984375 43.109375 
Q 33.015625 43.109375 33.015625 41.796875 
Q 32.953125 41.546875 32.8125 40.953125 
Q 32.671875 40.375 32.421875 39.984375 
Q 32.171875 39.59375 31.6875 39.59375 
L 20.796875 39.59375 
L 13.625 10.6875 
Q 12.890625 7.859375 12.890625 5.8125 
Q 12.890625 1.515625 15.828125 1.515625 
Q 20.21875 1.515625 23.609375 5.640625 
Q 27 9.765625 28.8125 14.703125 
Q 29.203125 15.28125 29.59375 15.28125 
L 30.8125 15.28125 
Q 31.203125 15.28125 31.4375 15.015625 
Q 31.6875 14.75 31.6875 14.40625 
Q 31.6875 14.203125 31.59375 14.109375 
Q 29.390625 8.0625 25.1875 3.46875 
Q 21 -1.125 15.578125 -1.125 
Q 11.625 -1.125 8.90625 1.453125 
Q 6.203125 4.046875 6.203125 8.109375 
" id="Cmmi10-74"/>
     </defs>
     <g transform="translate(258.39 423.7171875)scale(0.18 -0.18)">
      <use transform="translate(0.0 0.40625)" xlink:href="#Cmmi10-74"/>
     </g>
    </g>
   </g>
   <g id="matplotlib.axis_2">
    <g id="ytick_1">
     <g id="line2d_80">
      <defs>
       <path d="M 0 0 
L 4 0 
" id="m7e17a38eb7" style="stroke:#000000;stroke-width:0.5;"/>
      </defs>
      <g>
       <use style="stroke:#000000;stroke-width:0.5;" x="72.0" xlink:href="#m7e17a38eb7" y="388.8"/>
      </g>
     </g>
     <g id="line2d_81">
      <defs>
       <path d="M 0 0 
L -4 0 
" id="mcccd937178" style="stroke:#000000;stroke-width:0.5;"/>
      </defs>
      <g>
       <use style="stroke:#000000;stroke-width:0.5;" x="451.44" xlink:href="#mcccd937178" y="388.8"/>
      </g>
     </g>
     <g id="text_7">
      <!-- $\mathdefault{10^{-4}}$ -->
      <defs>
       <path d="M 4.890625 31.390625 
L 31.203125 31.390625 
L 31.203125 23.390625 
L 4.890625 23.390625 
z
" id="BitstreamVeraSans-Roman-2d"/>
      </defs>
      <g transform="translate(42.68 392.364375)scale(0.12 -0.12)">
       <use transform="translate(0.0 0.7156250000000028)" xlink:href="#BitstreamVeraSans-Roman-31"/>
       <use transform="translate(63.623046875 0.7156250000000028)" xlink:href="#BitstreamVeraSans-Roman-30"/>
       <use transform="translate(132.75859375 47.965625)scale(0.7)" xlink:href="#BitstreamVeraSans-Roman-2d"/>
       <use transform="translate(158.0173828125 47.965625)scale(0.7)" xlink:href="#BitstreamVeraSans-Roman-34"/>
      </g>
     </g>
    </g>
    <g id="ytick_2">
     <g id="line2d_82">
      <g>
       <use style="stroke:#000000;stroke-width:0.5;" x="72.0" xlink:href="#m7e17a38eb7" y="284.105404539"/>
      </g>
     </g>
     <g id="line2d_83">
      <g>
       <use style="stroke:#000000;stroke-width:0.5;" x="451.44" xlink:href="#mcccd937178" y="284.105404539"/>
      </g>
     </g>
     <g id="text_8">
      <!-- $\mathdefault{10^{-3}}$ -->
      <g transform="translate(42.68 287.729779539)scale(0.12 -0.12)">
       <use transform="translate(0.0 0.796875)" xlink:href="#BitstreamVeraSans-Roman-31"/>
       <use transform="translate(63.623046875 0.796875)" xlink:href="#BitstreamVeraSans-Roman-30"/>
       <use transform="translate(132.75859375 48.046875)scale(0.7)" xlink:href="#BitstreamVeraSans-Roman-2d"/>
       <use transform="translate(158.0173828125 48.046875)scale(0.7)" xlink:href="#BitstreamVeraSans-Roman-33"/>
      </g>
     </g>
    </g>
    <g id="ytick_3">
     <g id="line2d_84">
      <g>
       <use style="stroke:#000000;stroke-width:0.5;" x="72.0" xlink:href="#m7e17a38eb7" y="179.410809078"/>
      </g>
     </g>
     <g id="line2d_85">
      <g>
       <use style="stroke:#000000;stroke-width:0.5;" x="451.44" xlink:href="#mcccd937178" y="179.410809078"/>
      </g>
     </g>
     <g id="text_9">
      <!-- $\mathdefault{10^{-2}}$ -->
      <g transform="translate(42.68 183.035184078)scale(0.12 -0.12)">
       <use transform="translate(0.0 0.796875)" xlink:href="#BitstreamVeraSans-Roman-31"/>
       <use transform="translate(63.623046875 0.796875)" xlink:href="#BitstreamVeraSans-Roman-30"/>
       <use transform="translate(132.75859375 48.046875)scale(0.7)" xlink:href="#BitstreamVeraSans-Roman-2d"/>
       <use transform="translate(158.0173828125 48.046875)scale(0.7)" xlink:href="#BitstreamVeraSans-Roman-32"/>
      </g>
     </g>
    </g>
    <g id="ytick_4">
     <g id="line2d_86">
      <g>
       <use style="stroke:#000000;stroke-width:0.5;" x="72.0" xlink:href="#m7e17a38eb7" y="74.7162136176"/>
      </g>
     </g>
     <g id="line2d_87">
      <g>
       <use style="stroke:#000000;stroke-width:0.5;" x="451.44" xlink:href="#mcccd937178" y="74.7162136176"/>
      </g>
     </g>
     <g id="text_10">
      <!-- $\mathdefault{10^{-1}}$ -->
      <g transform="translate(42.68 78.2805886176)scale(0.12 -0.12)">
       <use transform="translate(0.0 0.7156250000000028)" xlink:href="#BitstreamVeraSans-Roman-31"/>
       <use transform="translate(63.623046875 0.7156250000000028)" xlink:href="#BitstreamVeraSans-Roman-30"/>
       <use transform="translate(132.75859375 47.965625)scale(0.7)" xlink:href="#BitstreamVeraSans-Roman-2d"/>
       <use transform="translate(158.0173828125 47.965625)scale(0.7)" xlink:href="#BitstreamVeraSans-Roman-31"/>
      </g>
     </g>
    </g>
    <g id="ytick_5">
     <g id="line2d_88">
      <defs>
       <path d="M 0 0 
L 2 0 
" id="m49f2e97e48" style="stroke:#000000;stroke-width:0.5;"/>
      </defs>
      <g>
       <use style="stroke:#000000;stroke-width:0.5;" x="72.0" xlink:href="#m49f2e97e48" y="357.283786382"/>
      </g>
     </g>
     <g id="line2d_89">
      <defs>
       <path d="M 0 0 
L -2 0 
" id="m1521932a20" style="stroke:#000000;stroke-width:0.5;"/>
      </defs>
      <g>
       <use style="stroke:#000000;stroke-width:0.5;" x="451.44" xlink:href="#m1521932a20" y="357.283786382"/>
      </g>
     </g>
    </g>
    <g id="ytick_6">
     <g id="line2d_90">
      <g>
       <use style="stroke:#000000;stroke-width:0.5;" x="72.0" xlink:href="#m49f2e97e48" y="338.847983251"/>
      </g>
     </g>
     <g id="line2d_91">
      <g>
       <use style="stroke:#000000;stroke-width:0.5;" x="451.44" xlink:href="#m1521932a20" y="338.847983251"/>
      </g>
     </g>
    </g>
    <g id="ytick_7">
     <g id="line2d_92">
      <g>
       <use style="stroke:#000000;stroke-width:0.5;" x="72.0" xlink:href="#m49f2e97e48" y="325.767572765"/>
      </g>
     </g>
     <g id="line2d_93">
      <g>
       <use style="stroke:#000000;stroke-width:0.5;" x="451.44" xlink:href="#m1521932a20" y="325.767572765"/>
      </g>
     </g>
    </g>
    <g id="ytick_8">
     <g id="line2d_94">
      <g>
       <use style="stroke:#000000;stroke-width:0.5;" x="72.0" xlink:href="#m49f2e97e48" y="315.621618157"/>
      </g>
     </g>
     <g id="line2d_95">
      <g>
       <use style="stroke:#000000;stroke-width:0.5;" x="451.44" xlink:href="#m1521932a20" y="315.621618157"/>
      </g>
     </g>
    </g>
    <g id="ytick_9">
     <g id="line2d_96">
      <g>
       <use style="stroke:#000000;stroke-width:0.5;" x="72.0" xlink:href="#m49f2e97e48" y="307.331769634"/>
      </g>
     </g>
     <g id="line2d_97">
      <g>
       <use style="stroke:#000000;stroke-width:0.5;" x="451.44" xlink:href="#m1521932a20" y="307.331769634"/>
      </g>
     </g>
    </g>
    <g id="ytick_10">
     <g id="line2d_98">
      <g>
       <use style="stroke:#000000;stroke-width:0.5;" x="72.0" xlink:href="#m49f2e97e48" y="300.322802576"/>
      </g>
     </g>
     <g id="line2d_99">
      <g>
       <use style="stroke:#000000;stroke-width:0.5;" x="451.44" xlink:href="#m1521932a20" y="300.322802576"/>
      </g>
     </g>
    </g>
    <g id="ytick_11">
     <g id="line2d_100">
      <g>
       <use style="stroke:#000000;stroke-width:0.5;" x="72.0" xlink:href="#m49f2e97e48" y="294.251359147"/>
      </g>
     </g>
     <g id="line2d_101">
      <g>
       <use style="stroke:#000000;stroke-width:0.5;" x="451.44" xlink:href="#m1521932a20" y="294.251359147"/>
      </g>
     </g>
    </g>
    <g id="ytick_12">
     <g id="line2d_102">
      <g>
       <use style="stroke:#000000;stroke-width:0.5;" x="72.0" xlink:href="#m49f2e97e48" y="288.895966503"/>
      </g>
     </g>
     <g id="line2d_103">
      <g>
       <use style="stroke:#000000;stroke-width:0.5;" x="451.44" xlink:href="#m1521932a20" y="288.895966503"/>
      </g>
     </g>
    </g>
    <g id="ytick_13">
     <g id="line2d_104">
      <g>
       <use style="stroke:#000000;stroke-width:0.5;" x="72.0" xlink:href="#m49f2e97e48" y="252.589190922"/>
      </g>
     </g>
     <g id="line2d_105">
      <g>
       <use style="stroke:#000000;stroke-width:0.5;" x="451.44" xlink:href="#m1521932a20" y="252.589190922"/>
      </g>
     </g>
    </g>
    <g id="ytick_14">
     <g id="line2d_106">
      <g>
       <use style="stroke:#000000;stroke-width:0.5;" x="72.0" xlink:href="#m49f2e97e48" y="234.153387791"/>
      </g>
     </g>
     <g id="line2d_107">
      <g>
       <use style="stroke:#000000;stroke-width:0.5;" x="451.44" xlink:href="#m1521932a20" y="234.153387791"/>
      </g>
     </g>
    </g>
    <g id="ytick_15">
     <g id="line2d_108">
      <g>
       <use style="stroke:#000000;stroke-width:0.5;" x="72.0" xlink:href="#m49f2e97e48" y="221.072977304"/>
      </g>
     </g>
     <g id="line2d_109">
      <g>
       <use style="stroke:#000000;stroke-width:0.5;" x="451.44" xlink:href="#m1521932a20" y="221.072977304"/>
      </g>
     </g>
    </g>
    <g id="ytick_16">
     <g id="line2d_110">
      <g>
       <use style="stroke:#000000;stroke-width:0.5;" x="72.0" xlink:href="#m49f2e97e48" y="210.927022696"/>
      </g>
     </g>
     <g id="line2d_111">
      <g>
       <use style="stroke:#000000;stroke-width:0.5;" x="451.44" xlink:href="#m1521932a20" y="210.927022696"/>
      </g>
     </g>
    </g>
    <g id="ytick_17">
     <g id="line2d_112">
      <g>
       <use style="stroke:#000000;stroke-width:0.5;" x="72.0" xlink:href="#m49f2e97e48" y="202.637174173"/>
      </g>
     </g>
     <g id="line2d_113">
      <g>
       <use style="stroke:#000000;stroke-width:0.5;" x="451.44" xlink:href="#m1521932a20" y="202.637174173"/>
      </g>
     </g>
    </g>
    <g id="ytick_18">
     <g id="line2d_114">
      <g>
       <use style="stroke:#000000;stroke-width:0.5;" x="72.0" xlink:href="#m49f2e97e48" y="195.628207115"/>
      </g>
     </g>
     <g id="line2d_115">
      <g>
       <use style="stroke:#000000;stroke-width:0.5;" x="451.44" xlink:href="#m1521932a20" y="195.628207115"/>
      </g>
     </g>
    </g>
    <g id="ytick_19">
     <g id="line2d_116">
      <g>
       <use style="stroke:#000000;stroke-width:0.5;" x="72.0" xlink:href="#m49f2e97e48" y="189.556763686"/>
      </g>
     </g>
     <g id="line2d_117">
      <g>
       <use style="stroke:#000000;stroke-width:0.5;" x="451.44" xlink:href="#m1521932a20" y="189.556763686"/>
      </g>
     </g>
    </g>
    <g id="ytick_20">
     <g id="line2d_118">
      <g>
       <use style="stroke:#000000;stroke-width:0.5;" x="72.0" xlink:href="#m49f2e97e48" y="184.201371042"/>
      </g>
     </g>
     <g id="line2d_119">
      <g>
       <use style="stroke:#000000;stroke-width:0.5;" x="451.44" xlink:href="#m1521932a20" y="184.201371042"/>
      </g>
     </g>
    </g>
    <g id="ytick_21">
     <g id="line2d_120">
      <g>
       <use style="stroke:#000000;stroke-width:0.5;" x="72.0" xlink:href="#m49f2e97e48" y="147.894595461"/>
      </g>
     </g>
     <g id="line2d_121">
      <g>
       <use style="stroke:#000000;stroke-width:0.5;" x="451.44" xlink:href="#m1521932a20" y="147.894595461"/>
      </g>
     </g>
    </g>
    <g id="ytick_22">
     <g id="line2d_122">
      <g>
       <use style="stroke:#000000;stroke-width:0.5;" x="72.0" xlink:href="#m49f2e97e48" y="129.45879233"/>
      </g>
     </g>
     <g id="line2d_123">
      <g>
       <use style="stroke:#000000;stroke-width:0.5;" x="451.44" xlink:href="#m1521932a20" y="129.45879233"/>
      </g>
     </g>
    </g>
    <g id="ytick_23">
     <g id="line2d_124">
      <g>
       <use style="stroke:#000000;stroke-width:0.5;" x="72.0" xlink:href="#m49f2e97e48" y="116.378381843"/>
      </g>
     </g>
     <g id="line2d_125">
      <g>
       <use style="stroke:#000000;stroke-width:0.5;" x="451.44" xlink:href="#m1521932a20" y="116.378381843"/>
      </g>
     </g>
    </g>
    <g id="ytick_24">
     <g id="line2d_126">
      <g>
       <use style="stroke:#000000;stroke-width:0.5;" x="72.0" xlink:href="#m49f2e97e48" y="106.232427235"/>
      </g>
     </g>
     <g id="line2d_127">
      <g>
       <use style="stroke:#000000;stroke-width:0.5;" x="451.44" xlink:href="#m1521932a20" y="106.232427235"/>
      </g>
     </g>
    </g>
    <g id="ytick_25">
     <g id="line2d_128">
      <g>
       <use style="stroke:#000000;stroke-width:0.5;" x="72.0" xlink:href="#m49f2e97e48" y="97.9425787122"/>
      </g>
     </g>
     <g id="line2d_129">
      <g>
       <use style="stroke:#000000;stroke-width:0.5;" x="451.44" xlink:href="#m1521932a20" y="97.9425787122"/>
      </g>
     </g>
    </g>
    <g id="ytick_26">
     <g id="line2d_130">
      <g>
       <use style="stroke:#000000;stroke-width:0.5;" x="72.0" xlink:href="#m49f2e97e48" y="90.9336116544"/>
      </g>
     </g>
     <g id="line2d_131">
      <g>
       <use style="stroke:#000000;stroke-width:0.5;" x="451.44" xlink:href="#m1521932a20" y="90.9336116544"/>
      </g>
     </g>
    </g>
    <g id="ytick_27">
     <g id="line2d_132">
      <g>
       <use style="stroke:#000000;stroke-width:0.5;" x="72.0" xlink:href="#m49f2e97e48" y="84.8621682256"/>
      </g>
     </g>
     <g id="line2d_133">
      <g>
       <use style="stroke:#000000;stroke-width:0.5;" x="451.44" xlink:href="#m1521932a20" y="84.8621682256"/>
      </g>
     </g>
    </g>
    <g id="ytick_28">
     <g id="line2d_134">
      <g>
       <use style="stroke:#000000;stroke-width:0.5;" x="72.0" xlink:href="#m49f2e97e48" y="79.5067755812"/>
      </g>
     </g>
     <g id="line2d_135">
      <g>
       <use style="stroke:#000000;stroke-width:0.5;" x="451.44" xlink:href="#m1521932a20" y="79.5067755812"/>
      </g>
     </g>
    </g>
    <g id="ytick_29">
     <g id="line2d_136">
      <g>
       <use style="stroke:#000000;stroke-width:0.5;" x="72.0" xlink:href="#m49f2e97e48" y="43.2"/>
      </g>
     </g>
     <g id="line2d_137">
      <g>
       <use style="stroke:#000000;stroke-width:0.5;" x="451.44" xlink:href="#m1521932a20" y="43.2"/>
      </g>
     </g>
    </g>
    <g id="text_11">
     <!-- $P(t)$ -->
     <defs>
      <path d="M 4.890625 0 
Q 3.90625 0 3.90625 1.3125 
Q 3.953125 1.5625 4.09375 2.171875 
Q 4.25 2.78125 4.515625 3.140625 
Q 4.78125 3.515625 5.171875 3.515625 
Q 11.28125 3.515625 13.71875 4.203125 
Q 14.984375 4.640625 15.578125 6.890625 
L 29.296875 61.8125 
Q 29.5 62.796875 29.5 63.1875 
Q 29.5 64.265625 28.328125 64.40625 
Q 26.421875 64.796875 21.09375 64.796875 
Q 20.125 64.796875 20.125 66.109375 
Q 20.171875 66.359375 20.3125 66.96875 
Q 20.453125 67.578125 20.71875 67.9375 
Q 21 68.3125 21.390625 68.3125 
L 55.90625 68.3125 
Q 60.640625 68.3125 65.078125 66.625 
Q 69.53125 64.9375 72.359375 61.46875 
Q 75.203125 58.015625 75.203125 53.078125 
Q 75.203125 46.734375 70.734375 41.75 
Q 66.265625 36.765625 59.59375 33.984375 
Q 52.9375 31.203125 46.6875 31.203125 
L 30.421875 31.203125 
L 24.3125 6.5 
Q 24.125 5.515625 24.125 5.078125 
Q 24.125 4.6875 24.234375 4.421875 
Q 24.359375 4.15625 24.578125 4.078125 
Q 24.8125 4 25.296875 3.90625 
Q 27.203125 3.515625 32.515625 3.515625 
Q 33.5 3.515625 33.5 2.203125 
Q 33.15625 0.78125 32.953125 0.390625 
Q 32.765625 0 31.78125 0 
z
M 30.90625 34.1875 
L 44.921875 34.1875 
Q 54.640625 34.1875 59.71875 39.40625 
Q 62.3125 42 63.9375 46.875 
Q 65.578125 51.765625 65.578125 55.71875 
Q 65.578125 60.640625 61.8125 62.71875 
Q 58.0625 64.796875 52.484375 64.796875 
L 42.921875 64.796875 
Q 40.1875 64.796875 39.296875 64.328125 
Q 38.421875 63.875 37.703125 61.375 
z
" id="Cmmi10-50"/>
      <path d="M 31 -24.8125 
Q 25.4375 -20.40625 21.40625 -14.71875 
Q 17.390625 -9.03125 14.8125 -2.578125 
Q 12.25 3.859375 10.984375 10.890625 
Q 9.71875 17.921875 9.71875 25 
Q 9.71875 32.171875 10.984375 39.203125 
Q 12.25 46.234375 14.859375 52.734375 
Q 17.484375 59.234375 21.53125 64.890625 
Q 25.59375 70.5625 31 74.8125 
Q 31 75 31.5 75 
L 32.421875 75 
Q 32.71875 75 32.953125 74.734375 
Q 33.203125 74.46875 33.203125 74.125 
Q 33.203125 73.6875 33.015625 73.484375 
Q 28.125 68.703125 24.875 63.234375 
Q 21.625 57.765625 19.640625 51.578125 
Q 17.671875 45.40625 16.796875 38.78125 
Q 15.921875 32.171875 15.921875 25 
Q 15.921875 -6.78125 32.90625 -23.296875 
Q 33.203125 -23.578125 33.203125 -24.125 
Q 33.203125 -24.359375 32.9375 -24.671875 
Q 32.671875 -25 32.421875 -25 
L 31.5 -25 
Q 31 -25 31 -24.8125 
" id="Cmr10-28"/>
      <path d="M 6.5 -25 
Q 5.609375 -25 5.609375 -24.125 
Q 5.609375 -23.6875 5.8125 -23.484375 
Q 22.90625 -6.78125 22.90625 25 
Q 22.90625 56.78125 6 73.296875 
Q 5.609375 73.53125 5.609375 74.125 
Q 5.609375 74.46875 5.875 74.734375 
Q 6.15625 75 6.5 75 
L 7.421875 75 
Q 7.71875 75 7.90625 74.8125 
Q 15.09375 69.140625 19.875 61.03125 
Q 24.65625 52.9375 26.875 43.75 
Q 29.109375 34.578125 29.109375 25 
Q 29.109375 17.921875 27.90625 11.0625 
Q 26.703125 4.203125 24.09375 -2.453125 
Q 21.484375 -9.125 17.484375 -14.765625 
Q 13.484375 -20.40625 7.90625 -24.8125 
Q 7.71875 -25 7.421875 -25 
z
" id="Cmr10-29"/>
     </defs>
     <g transform="translate(33.18 232.02)rotate(-90.0)scale(0.18 -0.18)">
      <use xlink:href="#Cmmi10-50"/>
      <use transform="translate(64.208984375 0.0)" xlink:href="#Cmr10-28"/>
      <use transform="translate(103.02734375 0.0)" xlink:href="#Cmmi10-74"/>
      <use transform="translate(139.111328125 0.0)" xlink:href="#Cmr10-29"/>
     </g>
    </g>
   </g>
   <g id="legend_1">
    <g id="patch_7">
     <path d="M 458.64 292.13775 
L 552.384 292.13775 
L 552.384 139.86225 
L 458.64 139.86225 
z
" style="fill:#ffffff;stroke:#000000;stroke-linejoin:miter;"/>
    </g>
    <g id="line2d_138">
     <path d="M 468.72 151.524 
L 488.88 151.524 
" style="fill:none;stroke:#00ba00;stroke-linecap:square;stroke-width:1.5;"/>
    </g>
    <g id="line2d_139"/>
    <g id="text_12">
     <!-- $25,0$% -->
     <defs>
      <path d="M 8.6875 11.375 
Q 9.71875 8.453125 11.84375 6.046875 
Q 13.96875 3.65625 16.875 2.3125 
Q 19.78125 0.984375 22.90625 0.984375 
Q 30.125 0.984375 32.859375 6.59375 
Q 35.59375 12.203125 35.59375 20.21875 
Q 35.59375 23.6875 35.46875 26.046875 
Q 35.359375 28.421875 34.8125 30.609375 
Q 33.890625 34.125 31.5625 36.765625 
Q 29.25 39.40625 25.875 39.40625 
Q 22.515625 39.40625 20.09375 38.375 
Q 17.671875 37.359375 16.15625 35.984375 
Q 14.65625 34.625 13.484375 33.109375 
Q 12.3125 31.59375 12.015625 31.5 
L 10.890625 31.5 
Q 10.640625 31.5 10.265625 31.8125 
Q 9.90625 32.125 9.90625 32.421875 
L 9.90625 65.828125 
Q 9.90625 66.0625 10.21875 66.328125 
Q 10.546875 66.609375 10.890625 66.609375 
L 11.1875 66.609375 
Q 17.921875 63.375 25.484375 63.375 
Q 32.90625 63.375 39.796875 66.609375 
L 40.09375 66.609375 
Q 40.4375 66.609375 40.71875 66.359375 
Q 41.015625 66.109375 41.015625 65.828125 
L 41.015625 64.890625 
Q 41.015625 64.40625 40.828125 64.40625 
Q 37.40625 59.859375 32.25 57.3125 
Q 27.09375 54.78125 21.578125 54.78125 
Q 17.578125 54.78125 13.375 55.90625 
L 13.375 37.015625 
Q 16.703125 39.703125 19.3125 40.84375 
Q 21.921875 42 25.984375 42 
Q 31.5 42 35.859375 38.8125 
Q 40.234375 35.640625 42.578125 30.53125 
Q 44.921875 25.4375 44.921875 20.125 
Q 44.921875 14.109375 41.96875 8.984375 
Q 39.015625 3.859375 33.9375 0.828125 
Q 28.859375 -2.203125 22.90625 -2.203125 
Q 17.96875 -2.203125 13.84375 0.328125 
Q 9.71875 2.875 7.34375 7.171875 
Q 4.984375 11.46875 4.984375 16.3125 
Q 4.984375 18.5625 6.4375 19.96875 
Q 7.90625 21.390625 10.109375 21.390625 
Q 12.3125 21.390625 13.796875 19.9375 
Q 15.28125 18.5 15.28125 16.3125 
Q 15.28125 14.15625 13.796875 12.671875 
Q 12.3125 11.1875 10.109375 11.1875 
Q 9.765625 11.1875 9.328125 11.25 
Q 8.890625 11.328125 8.6875 11.375 
" id="Cmr10-35"/>
      <path d="M 72.703125 32.078125 
Q 68.453125 32.078125 66.03125 28.46875 
Q 63.625 24.859375 63.625 18.40625 
Q 63.625 12.0625 66.03125 8.421875 
Q 68.453125 4.78125 72.703125 4.78125 
Q 76.859375 4.78125 79.265625 8.421875 
Q 81.6875 12.0625 81.6875 18.40625 
Q 81.6875 24.8125 79.265625 28.4375 
Q 76.859375 32.078125 72.703125 32.078125 
M 72.703125 38.28125 
Q 80.421875 38.28125 84.953125 32.90625 
Q 89.5 27.546875 89.5 18.40625 
Q 89.5 9.28125 84.9375 3.921875 
Q 80.375 -1.421875 72.703125 -1.421875 
Q 64.890625 -1.421875 60.34375 3.921875 
Q 55.8125 9.28125 55.8125 18.40625 
Q 55.8125 27.59375 60.375 32.9375 
Q 64.9375 38.28125 72.703125 38.28125 
M 22.3125 68.015625 
Q 18.109375 68.015625 15.6875 64.375 
Q 13.28125 60.75 13.28125 54.390625 
Q 13.28125 47.953125 15.671875 44.328125 
Q 18.0625 40.71875 22.3125 40.71875 
Q 26.5625 40.71875 28.96875 44.328125 
Q 31.390625 47.953125 31.390625 54.390625 
Q 31.390625 60.6875 28.953125 64.34375 
Q 26.515625 68.015625 22.3125 68.015625 
M 66.40625 74.21875 
L 74.21875 74.21875 
L 28.609375 -1.421875 
L 20.796875 -1.421875 
z
M 22.3125 74.21875 
Q 30.03125 74.21875 34.609375 68.875 
Q 39.203125 63.53125 39.203125 54.390625 
Q 39.203125 45.171875 34.640625 39.84375 
Q 30.078125 34.515625 22.3125 34.515625 
Q 14.546875 34.515625 10.03125 39.859375 
Q 5.515625 45.21875 5.515625 54.390625 
Q 5.515625 63.484375 10.046875 68.84375 
Q 14.59375 74.21875 22.3125 74.21875 
" id="BitstreamVeraSans-Roman-25"/>
      <path d="M 4.984375 0 
L 4.984375 2.6875 
Q 4.984375 2.9375 5.171875 3.21875 
L 20.703125 20.40625 
Q 24.21875 24.21875 26.40625 26.796875 
Q 28.609375 29.390625 30.75 32.765625 
Q 32.90625 36.140625 34.15625 39.625 
Q 35.40625 43.109375 35.40625 47.015625 
Q 35.40625 51.125 33.890625 54.859375 
Q 32.375 58.59375 29.375 60.84375 
Q 26.375 63.09375 22.125 63.09375 
Q 17.78125 63.09375 14.3125 60.46875 
Q 10.84375 57.859375 9.421875 53.71875 
Q 9.8125 53.8125 10.5 53.8125 
Q 12.75 53.8125 14.328125 52.296875 
Q 15.921875 50.78125 15.921875 48.390625 
Q 15.921875 46.09375 14.328125 44.5 
Q 12.75 42.921875 10.5 42.921875 
Q 8.15625 42.921875 6.5625 44.546875 
Q 4.984375 46.1875 4.984375 48.390625 
Q 4.984375 52.15625 6.390625 55.4375 
Q 7.8125 58.734375 10.46875 61.296875 
Q 13.140625 63.875 16.484375 65.234375 
Q 19.828125 66.609375 23.578125 66.609375 
Q 29.296875 66.609375 34.21875 64.1875 
Q 39.15625 61.765625 42.03125 57.34375 
Q 44.921875 52.9375 44.921875 47.015625 
Q 44.921875 42.671875 43.015625 38.765625 
Q 41.109375 34.859375 38.125 31.65625 
Q 35.15625 28.46875 30.515625 24.40625 
Q 25.875 20.359375 24.421875 19 
L 13.09375 8.109375 
L 22.703125 8.109375 
Q 29.78125 8.109375 34.546875 8.21875 
Q 39.3125 8.34375 39.59375 8.59375 
Q 40.765625 9.859375 42 17.828125 
L 44.921875 17.828125 
L 42.09375 0 
z
" id="Cmr10-32"/>
      <path d="M 25 -2.203125 
Q 12.75 -2.203125 8.328125 7.875 
Q 3.90625 17.96875 3.90625 31.890625 
Q 3.90625 40.578125 5.484375 48.234375 
Q 7.078125 55.90625 11.78125 61.25 
Q 16.5 66.609375 25 66.609375 
Q 31.59375 66.609375 35.78125 63.375 
Q 39.984375 60.15625 42.1875 55.046875 
Q 44.390625 49.953125 45.1875 44.109375 
Q 46 38.28125 46 31.890625 
Q 46 23.296875 44.40625 15.796875 
Q 42.828125 8.296875 38.1875 3.046875 
Q 33.546875 -2.203125 25 -2.203125 
M 25 0.390625 
Q 30.5625 0.390625 33.296875 6.09375 
Q 36.03125 11.8125 36.671875 18.75 
Q 37.3125 25.6875 37.3125 33.5 
Q 37.3125 41.015625 36.671875 47.359375 
Q 36.03125 53.71875 33.3125 58.859375 
Q 30.609375 64.015625 25 64.015625 
Q 19.34375 64.015625 16.609375 58.828125 
Q 13.875 53.65625 13.234375 47.328125 
Q 12.59375 41.015625 12.59375 33.5 
Q 12.59375 27.9375 12.859375 23 
Q 13.140625 18.0625 14.3125 12.8125 
Q 15.484375 7.5625 18.09375 3.96875 
Q 20.703125 0.390625 25 0.390625 
" id="Cmr10-30"/>
      <path d="M 9.90625 -18.015625 
Q 9.90625 -17.578125 10.296875 -17.1875 
Q 13.921875 -13.71875 15.921875 -9.171875 
Q 17.921875 -4.640625 17.921875 0.390625 
L 17.921875 1.609375 
Q 16.3125 0 13.921875 0 
Q 11.625 0 10.015625 1.609375 
Q 8.40625 3.21875 8.40625 5.515625 
Q 8.40625 7.859375 10.015625 9.421875 
Q 11.625 10.984375 13.921875 10.984375 
Q 17.484375 10.984375 19 7.6875 
Q 20.515625 4.390625 20.515625 0.390625 
Q 20.515625 -5.171875 18.28125 -10.171875 
Q 16.0625 -15.1875 12.015625 -19.1875 
Q 11.625 -19.390625 11.375 -19.390625 
Q 10.890625 -19.390625 10.390625 -18.9375 
Q 9.90625 -18.5 9.90625 -18.015625 
" id="Cmmi10-3b"/>
     </defs>
     <g transform="translate(504.72 156.564)scale(0.144 -0.144)">
      <use transform="translate(0.0 0.78125)" xlink:href="#Cmr10-32"/>
      <use transform="translate(50.0 0.78125)" xlink:href="#Cmr10-35"/>
      <use transform="translate(100.0 0.78125)" xlink:href="#Cmmi10-3b"/>
      <use transform="translate(145.244140625 0.78125)" xlink:href="#Cmr10-30"/>
      <use transform="translate(195.244140625 0.78125)" xlink:href="#BitstreamVeraSans-Roman-25"/>
     </g>
    </g>
    <g id="line2d_140">
     <path d="M 468.72 172.6605 
L 488.88 172.6605 
" style="fill:none;stroke:#00ba00;stroke-dasharray:6.000000,6.000000;stroke-dashoffset:0.0;stroke-width:1.5;"/>
    </g>
    <g id="line2d_141"/>
    <g id="text_13">
     <!-- $29,2$% -->
     <defs>
      <path d="M 11.28125 4.203125 
Q 14.015625 0.984375 20.796875 0.984375 
Q 24.609375 0.984375 27.90625 3.5625 
Q 31.203125 6.15625 33.015625 9.90625 
Q 35.109375 14.15625 35.6875 18.96875 
Q 36.28125 23.78125 36.28125 30.90625 
Q 34.578125 26.859375 31.375 24.265625 
Q 28.171875 21.6875 24.03125 21.6875 
Q 18.21875 21.6875 13.640625 24.828125 
Q 9.078125 27.984375 6.640625 33.125 
Q 4.203125 38.28125 4.203125 44.09375 
Q 4.203125 50.09375 6.9375 55.296875 
Q 9.671875 60.5 14.5 63.546875 
Q 19.34375 66.609375 25.484375 66.609375 
Q 31.546875 66.609375 35.625 63.3125 
Q 39.703125 60.015625 41.84375 54.8125 
Q 44 49.609375 44.84375 43.796875 
Q 45.703125 37.984375 45.703125 32.328125 
Q 45.703125 24.609375 42.875 16.578125 
Q 40.046875 8.546875 34.40625 3.171875 
Q 28.765625 -2.203125 20.796875 -2.203125 
Q 14.890625 -2.203125 10.78125 0.578125 
Q 6.6875 3.375 6.6875 8.984375 
Q 6.6875 11.03125 8.078125 12.421875 
Q 9.46875 13.8125 11.53125 13.8125 
Q 13.53125 13.8125 14.921875 12.421875 
Q 16.3125 11.03125 16.3125 8.984375 
Q 16.3125 7.03125 14.890625 5.609375 
Q 13.484375 4.203125 11.53125 4.203125 
z
M 24.421875 24.3125 
Q 28.515625 24.3125 31.125 27.0625 
Q 33.734375 29.828125 34.90625 33.921875 
Q 36.078125 38.03125 36.078125 42.09375 
L 36.078125 44 
L 36.078125 44.390625 
Q 36.078125 51.90625 33.875 57.8125 
Q 31.6875 63.71875 25.484375 63.71875 
Q 21.53125 63.71875 19.0625 61.984375 
Q 16.609375 60.25 15.4375 57.375 
Q 14.265625 54.5 13.9375 51.21875 
Q 13.625 47.953125 13.625 44.09375 
Q 13.625 38.421875 14.15625 34.421875 
Q 14.703125 30.421875 17.09375 27.359375 
Q 19.484375 24.3125 24.421875 24.3125 
" id="Cmr10-39"/>
     </defs>
     <g transform="translate(504.72 177.7005)scale(0.144 -0.144)">
      <use transform="translate(0.0 0.78125)" xlink:href="#Cmr10-32"/>
      <use transform="translate(50.0 0.78125)" xlink:href="#Cmr10-39"/>
      <use transform="translate(100.0 0.78125)" xlink:href="#Cmmi10-3b"/>
      <use transform="translate(145.244140625 0.78125)" xlink:href="#Cmr10-32"/>
      <use transform="translate(195.244140625 0.78125)" xlink:href="#BitstreamVeraSans-Roman-25"/>
     </g>
    </g>
    <g id="line2d_142">
     <path d="M 468.72 193.797 
L 488.88 193.797 
" style="fill:none;stroke:#ffbc42;stroke-linecap:square;stroke-width:1.5;"/>
    </g>
    <g id="line2d_143"/>
    <g id="text_14">
     <!-- $33,3$% -->
     <defs>
      <path d="M 9.515625 7.71875 
Q 11.859375 4.296875 15.8125 2.640625 
Q 19.78125 0.984375 24.3125 0.984375 
Q 30.125 0.984375 32.5625 5.9375 
Q 35.015625 10.890625 35.015625 17.1875 
Q 35.015625 20.015625 34.5 22.84375 
Q 33.984375 25.6875 32.765625 28.125 
Q 31.546875 30.5625 29.421875 32.03125 
Q 27.296875 33.5 24.21875 33.5 
L 17.578125 33.5 
Q 16.703125 33.5 16.703125 34.421875 
L 16.703125 35.296875 
Q 16.703125 36.078125 17.578125 36.078125 
L 23.09375 36.53125 
Q 26.609375 36.53125 28.921875 39.15625 
Q 31.25 41.796875 32.328125 45.578125 
Q 33.40625 49.359375 33.40625 52.78125 
Q 33.40625 57.5625 31.15625 60.640625 
Q 28.90625 63.71875 24.3125 63.71875 
Q 20.515625 63.71875 17.046875 62.28125 
Q 13.578125 60.84375 11.53125 57.90625 
Q 11.71875 57.953125 11.859375 57.984375 
Q 12.015625 58.015625 12.203125 58.015625 
Q 14.453125 58.015625 15.96875 56.453125 
Q 17.484375 54.890625 17.484375 52.6875 
Q 17.484375 50.53125 15.96875 48.96875 
Q 14.453125 47.40625 12.203125 47.40625 
Q 10.015625 47.40625 8.453125 48.96875 
Q 6.890625 50.53125 6.890625 52.6875 
Q 6.890625 56.984375 9.46875 60.15625 
Q 12.0625 63.328125 16.140625 64.96875 
Q 20.21875 66.609375 24.3125 66.609375 
Q 27.34375 66.609375 30.703125 65.703125 
Q 34.078125 64.796875 36.8125 63.109375 
Q 39.546875 61.421875 41.28125 58.78125 
Q 43.015625 56.15625 43.015625 52.78125 
Q 43.015625 48.578125 41.140625 45.015625 
Q 39.265625 41.453125 35.984375 38.859375 
Q 32.71875 36.28125 28.8125 35.015625 
Q 33.15625 34.1875 37.0625 31.734375 
Q 40.96875 29.296875 43.328125 25.484375 
Q 45.703125 21.6875 45.703125 17.28125 
Q 45.703125 11.765625 42.671875 7.296875 
Q 39.65625 2.828125 34.71875 0.3125 
Q 29.78125 -2.203125 24.3125 -2.203125 
Q 19.625 -2.203125 14.90625 -0.40625 
Q 10.203125 1.375 7.203125 4.9375 
Q 4.203125 8.5 4.203125 13.484375 
Q 4.203125 15.96875 5.859375 17.625 
Q 7.515625 19.28125 10.015625 19.28125 
Q 11.625 19.28125 12.96875 18.53125 
Q 14.3125 17.78125 15.0625 16.40625 
Q 15.828125 15.046875 15.828125 13.484375 
Q 15.828125 11.03125 14.109375 9.375 
Q 12.40625 7.71875 10.015625 7.71875 
z
" id="Cmr10-33"/>
     </defs>
     <g transform="translate(504.72 198.837)scale(0.144 -0.144)">
      <use transform="translate(0.0 0.78125)" xlink:href="#Cmr10-33"/>
      <use transform="translate(50.0 0.78125)" xlink:href="#Cmr10-33"/>
      <use transform="translate(100.0 0.78125)" xlink:href="#Cmmi10-3b"/>
      <use transform="translate(145.244140625 0.78125)" xlink:href="#Cmr10-33"/>
      <use transform="translate(195.244140625 0.78125)" xlink:href="#BitstreamVeraSans-Roman-25"/>
     </g>
    </g>
    <g id="line2d_144">
     <path d="M 468.72 214.9335 
L 488.88 214.9335 
" style="fill:none;stroke:#ffbc42;stroke-dasharray:6.000000,6.000000;stroke-dashoffset:0.0;stroke-width:1.5;"/>
    </g>
    <g id="line2d_145"/>
    <g id="text_15">
     <!-- $37,5$% -->
     <defs>
      <path d="M 17.390625 2.59375 
Q 17.390625 8.15625 18.359375 13.46875 
Q 19.34375 18.796875 21.21875 24 
Q 23.09375 29.203125 25.75 34.203125 
Q 28.421875 39.203125 31.59375 43.609375 
L 40.71875 56.296875 
L 29.296875 56.296875 
Q 11.53125 56.296875 10.984375 55.8125 
Q 9.671875 54.203125 8.5 46.578125 
L 5.609375 46.578125 
L 8.890625 67.578125 
L 11.8125 67.578125 
L 11.8125 67.28125 
Q 11.8125 65.484375 17.921875 64.9375 
Q 24.03125 64.40625 29.890625 64.40625 
L 48.484375 64.40625 
L 48.484375 61.8125 
Q 48.484375 61.71875 48.453125 61.671875 
Q 48.4375 61.625 48.390625 61.53125 
L 34.625 42.1875 
Q 29.546875 34.671875 28.265625 25.484375 
Q 27 16.3125 27 2.59375 
Q 27 0.640625 25.578125 -0.78125 
Q 24.171875 -2.203125 22.21875 -2.203125 
Q 20.21875 -2.203125 18.796875 -0.78125 
Q 17.390625 0.640625 17.390625 2.59375 
" id="Cmr10-37"/>
     </defs>
     <g transform="translate(504.72 219.9735)scale(0.144 -0.144)">
      <use transform="translate(0.0 0.78125)" xlink:href="#Cmr10-33"/>
      <use transform="translate(50.0 0.78125)" xlink:href="#Cmr10-37"/>
      <use transform="translate(100.0 0.78125)" xlink:href="#Cmmi10-3b"/>
      <use transform="translate(145.244140625 0.78125)" xlink:href="#Cmr10-35"/>
      <use transform="translate(195.244140625 0.78125)" xlink:href="#BitstreamVeraSans-Roman-25"/>
     </g>
    </g>
    <g id="line2d_146">
     <path d="M 468.72 236.07 
L 488.88 236.07 
" style="fill:none;stroke:#f46036;stroke-linecap:square;stroke-width:1.5;"/>
    </g>
    <g id="line2d_147"/>
    <g id="text_16">
     <!-- $50,0$% -->
     <g transform="translate(504.72 241.11)scale(0.144 -0.144)">
      <use transform="translate(0.0 0.78125)" xlink:href="#Cmr10-35"/>
      <use transform="translate(50.0 0.78125)" xlink:href="#Cmr10-30"/>
      <use transform="translate(100.0 0.78125)" xlink:href="#Cmmi10-3b"/>
      <use transform="translate(145.244140625 0.78125)" xlink:href="#Cmr10-30"/>
      <use transform="translate(195.244140625 0.78125)" xlink:href="#BitstreamVeraSans-Roman-25"/>
     </g>
    </g>
    <g id="line2d_148">
     <path d="M 468.72 257.2065 
L 488.88 257.2065 
" style="fill:none;stroke:#2e294e;stroke-linecap:square;stroke-width:1.5;"/>
    </g>
    <g id="line2d_149"/>
    <g id="text_17">
     <!-- $62,5$% -->
     <defs>
      <path d="M 25 -2.203125 
Q 18.796875 -2.203125 14.640625 1.09375 
Q 10.5 4.390625 8.21875 9.640625 
Q 5.953125 14.890625 5.078125 20.65625 
Q 4.203125 26.421875 4.203125 32.328125 
Q 4.203125 40.234375 7.28125 48.1875 
Q 10.359375 56.15625 16.328125 61.375 
Q 22.3125 66.609375 30.515625 66.609375 
Q 33.9375 66.609375 36.890625 65.3125 
Q 39.84375 64.015625 41.53125 61.5 
Q 43.21875 58.984375 43.21875 55.421875 
Q 43.21875 53.375 41.828125 51.984375 
Q 40.4375 50.59375 38.375 50.59375 
Q 36.421875 50.59375 35 52 
Q 33.59375 53.421875 33.59375 55.421875 
Q 33.59375 57.375 35 58.78125 
Q 36.421875 60.203125 38.375 60.203125 
L 38.921875 60.203125 
Q 37.640625 62.015625 35.328125 62.859375 
Q 33.015625 63.71875 30.515625 63.71875 
Q 27.484375 63.71875 24.921875 62.390625 
Q 22.359375 61.078125 20.3125 58.828125 
Q 18.265625 56.59375 16.890625 53.875 
Q 15.53125 51.171875 14.765625 47.703125 
Q 14.015625 44.234375 13.8125 41.203125 
Q 13.625 38.1875 13.625 33.59375 
Q 15.375 37.703125 18.59375 40.3125 
Q 21.828125 42.921875 25.875 42.921875 
Q 30.328125 42.921875 33.984375 41.109375 
Q 37.640625 39.3125 40.28125 36.109375 
Q 42.921875 32.90625 44.3125 28.796875 
Q 45.703125 24.703125 45.703125 20.515625 
Q 45.703125 14.65625 43.09375 9.34375 
Q 40.484375 4.046875 35.734375 0.921875 
Q 31 -2.203125 25 -2.203125 
M 25 0.984375 
Q 28.859375 0.984375 31.203125 2.734375 
Q 33.546875 4.5 34.640625 7.390625 
Q 35.75 10.296875 36.015625 13.25 
Q 36.28125 16.21875 36.28125 20.515625 
Q 36.28125 26.171875 35.734375 30.171875 
Q 35.203125 34.1875 32.8125 37.234375 
Q 30.421875 40.28125 25.484375 40.28125 
Q 21.4375 40.28125 18.828125 37.546875 
Q 16.21875 34.8125 15.015625 30.640625 
Q 13.8125 26.46875 13.8125 22.609375 
Q 13.8125 21.296875 13.921875 20.609375 
Q 13.921875 20.453125 13.890625 20.359375 
Q 13.875 20.265625 13.8125 20.125 
Q 13.8125 15.828125 14.6875 11.421875 
Q 15.578125 7.03125 18.0625 4 
Q 20.5625 0.984375 25 0.984375 
" id="Cmr10-36"/>
     </defs>
     <g transform="translate(504.72 262.2465)scale(0.144 -0.144)">
      <use transform="translate(0.0 0.78125)" xlink:href="#Cmr10-36"/>
      <use transform="translate(50.0 0.78125)" xlink:href="#Cmr10-32"/>
      <use transform="translate(100.0 0.78125)" xlink:href="#Cmmi10-3b"/>
      <use transform="translate(145.244140625 0.78125)" xlink:href="#Cmr10-35"/>
      <use transform="translate(195.244140625 0.78125)" xlink:href="#BitstreamVeraSans-Roman-25"/>
     </g>
    </g>
    <g id="line2d_150">
     <path d="M 468.72 278.343 
L 488.88 278.343 
" style="fill:none;stroke:#73d2de;stroke-linecap:square;stroke-width:1.5;"/>
    </g>
    <g id="line2d_151"/>
    <g id="text_18">
     <!-- $75,0$% -->
     <g transform="translate(504.72 283.383)scale(0.144 -0.144)">
      <use transform="translate(0.0 0.78125)" xlink:href="#Cmr10-37"/>
      <use transform="translate(50.0 0.78125)" xlink:href="#Cmr10-35"/>
      <use transform="translate(100.0 0.78125)" xlink:href="#Cmmi10-3b"/>
      <use transform="translate(145.244140625 0.78125)" xlink:href="#Cmr10-30"/>
      <use transform="translate(195.244140625 0.78125)" xlink:href="#BitstreamVeraSans-Roman-25"/>
     </g>
    </g>
   </g>
  </g>
 </g>
 <defs>
  <clipPath id="pdda41e69ab">
   <rect height="345.6" width="379.44" x="72.0" y="43.2"/>
  </clipPath>
 </defs>
</svg>
